<?xml version="1.0" encoding="UTF-8"?>
<svg width="16px" height="16px" viewBox="0 0 16 16" version="1.1" xmlns="http://www.w3.org/2000/svg" xmlns:xlink="http://www.w3.org/1999/xlink">
    <!-- Generator: Sketch 48.2 (47327) - http://www.bohemiancoding.com/sketch -->
    <title>icon/16px/add-item-16px</title>
    <desc>Created with Sketch.</desc>
    <defs>
        <path d="M13.25,2.75 L14,2.75 C14.4142136,2.75 14.75,3.08578644 14.75,3.5 C14.75,3.91421356 14.4142136,4.25 14,4.25 L13.25,4.25 L13.25,5.00691652 C13.25,5.4173102 12.9171014,5.75 12.5,5.75 C12.0857864,5.75 11.75,5.41176862 11.75,5.00691652 L11.75,4.25 L11,4.25 C10.5857864,4.25 10.25,3.91421356 10.25,3.5 C10.25,3.08578644 10.5857864,2.75 11,2.75 L11.75,2.75 L11.75,1.99308348 C11.75,1.5826898 12.0828986,1.25 12.5,1.25 C12.9142136,1.25 13.25,1.58823138 13.25,1.99308348 L13.25,2.75 Z M8.75,1.25 L8.75,2.75 L2.75,2.75 L2.75,13.25 L13.25,13.25 L13.25,7.25 L14.75,7.25 L14.75,13.253683 C14.75,14.0800761 14.0805329,14.75 13.253683,14.75 L2.74631697,14.75 C1.91992393,14.75 1.25,14.0805329 1.25,13.253683 L1.25,2.74631697 C1.25,1.91992393 1.9194671,1.25 2.74631697,1.25 L8.75,1.25 Z" id="path-1"></path>
    </defs>
    <g id="Symbols" stroke="none" stroke-width="1" fill="none" fill-rule="evenodd">
        <g id="icon/16px/add-item">
            <mask id="mask-2" fill="white">
                <use xlink:href="#path-1"></use>
            </mask>
            <use id="Add-item" fill="#42526E" fill-rule="nonzero" xlink:href="#path-1"></use>
        </g>
    </g>
</svg>