<?xml version="1.0" encoding="UTF-8"?>
<svg width="16px" height="16px" viewBox="0 0 16 16" version="1.1" xmlns="http://www.w3.org/2000/svg" xmlns:xlink="http://www.w3.org/1999/xlink">
    <!-- Generator: Sketch 48.2 (47327) - http://www.bohemiancoding.com/sketch -->
    <title>icon/16px/app-switcher-16px</title>
    <desc>Created with Sketch.</desc>
    <defs></defs>
    <g id="Symbols" stroke="none" stroke-width="1" fill="none" fill-rule="evenodd">
        <g id="icon/16px/app-switcher" fill="#42526E">
            <path d="M6.5,10 L9.5,10 L9.5,6 L6.5,6 L6.5,10 Z M2,4 L14,4 L14,7 C14,6.45 13.55,6 13,6 L11.5,6 L11.5,10 L13,10 C13.55,10 14,9.55 14,9 L14,12 L2,12 L2,9 C2,9.55 2.45,10 3,10 L4.5,10 L4.5,6 L3,6 C2.45,6 2,6.45 2,7 L2,4 Z M2,7 L2,4 C0.9,4 0,4.9 0,6 L0,10 C0,11.1 0.9,12 2,12 L2,9 L2,7 Z M14,9 L14,12 C15.1,12 16,11.1 16,10 L16,6 C16,4.9 15.1,4 14,4 L14,7 L14,9 Z M4,15 L12,15 C13.1,15 14,14.1 14,13 L2,13 C2,14.1 2.9,15 4,15 Z M14,3 L2,3 C2,1.9 2.9,1 4,1 L12,1 C13.1,1 14,1.9 14,3 Z" id="app-switcher"></path>
        </g>
    </g>
</svg>