<?xml version="1.0" encoding="UTF-8"?>
<svg width="16px" height="16px" viewBox="0 0 16 16" version="1.1" xmlns="http://www.w3.org/2000/svg" xmlns:xlink="http://www.w3.org/1999/xlink">
    <!-- Generator: Sketch 48.2 (47327) - http://www.bohemiancoding.com/sketch -->
    <title>icon/16px/arrow-left-circle-16px</title>
    <desc>Created with Sketch.</desc>
    <defs>
        <path d="M1,8 C1,11.866 4.134,15 8,15 C11.866,15 15,11.866 15,8 C15,4.134 11.866,1 8,1 C4.134,1 1,4.134 1,8 Z M6.789,10.594 L4.705,8.498 C4.568,8.359 4.5,8.179 4.5,7.999 C4.5,7.818 4.568,7.639 4.705,7.502 L6.789,5.406 C6.927,5.269 7.106,5.2 7.285,5.2 C7.464,5.2 7.642,5.269 7.78,5.406 C8.053,5.682 8.053,6.126 7.78,6.4 L6.89,7.296 L7.799,7.296 L9.135,7.296 L10.8,7.296 C11.187,7.296 11.5,7.611 11.5,8 C11.5,8.389 11.187,8.703 10.8,8.703 L9.135,8.703 L7.799,8.703 L6.89,8.703 L7.78,9.599 C8.053,9.873 8.053,10.319 7.78,10.594 C7.643,10.732 7.464,10.8 7.285,10.8 C7.106,10.8 6.926,10.732 6.789,10.594 Z" id="path-1"></path>
    </defs>
    <g id="Symbols" stroke="none" stroke-width="1" fill="none" fill-rule="evenodd">
        <g id="icon/16px/arrow-left-circle">
            <mask id="mask-2" fill="white">
                <use xlink:href="#path-1"></use>
            </mask>
            <use id="Clip-2" fill="#42526E" xlink:href="#path-1"></use>
        </g>
    </g>
</svg>