<?xml version="1.0" encoding="UTF-8"?>
<svg width="16px" height="16px" viewBox="0 0 16 16" version="1.1" xmlns="http://www.w3.org/2000/svg" xmlns:xlink="http://www.w3.org/1999/xlink">
    <!-- Generator: Sketch 48.2 (47327) - http://www.bohemiancoding.com/sketch -->
    <title>icon/16px/calendar-16px</title>
    <desc>Created with Sketch.</desc>
    <defs>
        <path d="M12.5266666,2.71888892 L13.2848833,2.71888892 C14.1162811,2.71888892 14.79,3.39411669 14.79,4.22325113 L14.79,13.2856377 C14.79,14.1162811 14.1170355,14.79 13.2848833,14.79 L2.7151167,14.79 C1.88371892,14.79 1.21000004,14.1155266 1.21000004,13.2856377 L1.21000004,4.22325113 C1.21000004,3.3926078 1.88296448,2.71888892 2.7151167,2.71888892 L3.47333336,2.71888892 L3.47333336,1.96444448 C3.47333336,1.54799115 3.81132447,1.21000004 4.2277778,1.21000004 C4.64423113,1.21000004 4.98222224,1.54799115 4.98222224,1.96444448 L4.98222224,2.71888892 L11.0177778,2.71888892 L11.0177778,1.96444448 C11.0177778,1.54799115 11.3557689,1.21000004 11.7722222,1.21000004 C12.1886755,1.21000004 12.5266666,1.54799115 12.5266666,1.96444448 L12.5266666,2.71888892 Z M2.71888892,5.73666668 L2.71888892,12.5266666 C2.71888892,12.9433348 3.0566652,13.2811111 3.47333336,13.2811111 L12.5266666,13.2811111 C12.9433348,13.2811111 13.2811111,12.9433348 13.2811111,12.5266666 L13.2811111,5.73666668 L2.71888892,5.73666668 Z M4.2277778,8.75444444 L4.2277778,7.24480112 L5.73666668,7.24480112 L5.73666668,8.75444444 L4.2277778,8.75444444 Z M10.2633333,8.75444444 L10.2633333,7.24480112 L11.7722222,7.24480112 L11.7722222,8.75444444 L10.2633333,8.75444444 Z M7.24555556,8.75444444 L7.24555556,7.24480112 L8.75519888,7.24480112 L8.75519888,8.75444444 L7.24555556,8.75444444 Z M4.2277778,11.7722222 L4.2277778,10.2633333 L5.73666668,10.2633333 L5.73666668,11.7722222 L4.2277778,11.7722222 Z M7.24555556,11.7722222 L7.24555556,10.2633333 L8.75519888,10.2633333 L8.75519888,11.7722222 L7.24555556,11.7722222 Z M10.2633333,11.7722222 L10.2633333,10.2633333 L11.7722222,10.2633333 L11.7722222,11.7722222 L10.2633333,11.7722222 Z" id="path-1"></path>
    </defs>
    <g id="Symbols" stroke="none" stroke-width="1" fill="none" fill-rule="evenodd">
        <g id="icon/16px/calendar">
            <mask id="mask-2" fill="white">
                <use xlink:href="#path-1"></use>
            </mask>
            <use id="calendar" fill="#3F4F71" xlink:href="#path-1"></use>
        </g>
    </g>
</svg>