<?xml version="1.0" encoding="UTF-8"?>
<svg width="16px" height="16px" viewBox="0 0 16 16" version="1.1" xmlns="http://www.w3.org/2000/svg" xmlns:xlink="http://www.w3.org/1999/xlink">
    <!-- Generator: Sketch 48.2 (47327) - http://www.bohemiancoding.com/sketch -->
    <title>icon/16px/chevron-down-circle-16px</title>
    <desc>Created with Sketch.</desc>
    <defs>
        <path d="M8,15 C4.13400675,15 1,11.8659932 1,8 C1,4.13400675 4.13400675,1 8,1 C11.8659932,1 15,4.13400675 15,8 C15,11.8659932 11.8659932,15 8,15 Z M5.404225,6.8051 C5.131925,7.0795 5.131925,7.524 5.404225,7.7984 L7.461525,9.8739 C7.614125,10.0244 7.811525,10.0993 8.006825,10.0993 C8.202125,10.0993 8.396025,10.0244 8.545125,9.8739 L10.596125,7.8054 C10.867725,7.531 10.867725,7.0865 10.596125,6.8121 C10.323825,6.5377 9.883525,6.5377 9.611925,6.8121 L8.003325,8.434 L6.388425,6.8051 C6.252625,6.6686 6.074125,6.6 5.896325,6.6 C5.717825,6.6 5.539325,6.6686 5.404225,6.8051 Z" id="path-1"></path>
    </defs>
    <g id="Symbols" stroke="none" stroke-width="1" fill="none" fill-rule="evenodd">
        <g id="icon/16px/chevron-down-circle">
            <mask id="mask-2" fill="white">
                <use xlink:href="#path-1"></use>
            </mask>
            <use id="Combined-Shape" fill="#42526E" xlink:href="#path-1"></use>
        </g>
    </g>
</svg>