<?xml version="1.0" encoding="UTF-8"?>
<svg width="16px" height="16px" viewBox="0 0 16 16" version="1.1" xmlns="http://www.w3.org/2000/svg" xmlns:xlink="http://www.w3.org/1999/xlink">
    <!-- Generator: Sketch 48.2 (47327) - http://www.bohemiancoding.com/sketch -->
    <title>icon/16px/chevron-double-down-16px</title>
    <desc>Created with Sketch.</desc>
    <defs>
        <path d="M10.302,8.294125 L7.995,10.621125 L5.698,8.304125 C5.309,7.912125 4.679,7.912125 4.291,8.304125 C3.903,8.695125 3.903,9.331125 4.291,9.723125 L7.221,12.678125 C7.647,13.107125 8.332,13.107125 8.768,12.678125 L11.709,9.712125 C12.097,9.321125 12.097,8.686125 11.709,8.294125 C11.32,7.902125 10.69,7.902125 10.302,8.294125 Z M4.291,4.723125 C3.903,4.331125 3.903,3.695125 4.291,3.304125 C4.679,2.912125 5.309,2.912125 5.698,3.304125 L7.995,5.621125 L10.302,3.294125 C10.69,2.902125 11.32,2.902125 11.709,3.294125 C12.097,3.686125 12.097,4.321125 11.709,4.712125 L8.768,7.678125 C8.332,8.107125 7.647,8.107125 7.221,7.678125 L4.291,4.723125 Z" id="path-1"></path>
    </defs>
    <g id="Symbols" stroke="none" stroke-width="1" fill="none" fill-rule="evenodd">
        <g id="icon/16px/chevron-double-down">
            <mask id="mask-2" fill="white">
                <use xlink:href="#path-1"></use>
            </mask>
            <use id="chevron-double-down-small" fill="#42526E" xlink:href="#path-1"></use>
        </g>
    </g>
</svg>