<?xml version="1.0" encoding="UTF-8"?>
<svg width="16px" height="16px" viewBox="0 0 16 16" version="1.1" xmlns="http://www.w3.org/2000/svg" xmlns:xlink="http://www.w3.org/1999/xlink">
    <!-- Generator: Sketch 48.2 (47327) - http://www.bohemiancoding.com/sketch -->
    <title>icon/16px/chevron-double-left-16px</title>
    <desc>Created with Sketch.</desc>
    <defs>
        <path d="M11.287375,11.7085 C11.679375,12.0975 12.314375,12.0975 12.705375,11.7085 C13.098375,11.3205 13.098375,10.6905 12.705375,10.3025 L10.378375,7.9955 L12.696375,5.6975 C13.087375,5.3095 13.087375,4.6795 12.696375,4.2915 C12.304375,3.9025 11.669375,3.9025 11.277375,4.2915 L8.322375,7.2215 C7.892375,7.6465 7.892375,8.3325 8.322375,8.7695 L11.287375,11.7085 Z M3.322375,7.2215 L6.277375,4.2915 C6.669375,3.9025 7.304375,3.9025 7.696375,4.2915 C8.087375,4.6795 8.087375,5.3095 7.696375,5.6975 L5.378375,7.9955 L7.705375,10.3025 C8.098375,10.6905 8.098375,11.3205 7.705375,11.7085 C7.314375,12.0975 6.679375,12.0975 6.287375,11.7085 L3.322375,8.7695 C2.892375,8.3325 2.892375,7.6465 3.322375,7.2215 Z" id="path-1"></path>
    </defs>
    <g id="Symbols" stroke="none" stroke-width="1" fill="none" fill-rule="evenodd">
        <g id="icon/16px/chevron-double-left">
            <mask id="mask-2" fill="white">
                <use xlink:href="#path-1"></use>
            </mask>
            <use id="chevron-double-left-small" fill="#3F4F71" xlink:href="#path-1"></use>
        </g>
    </g>
</svg>