<?xml version="1.0" encoding="UTF-8"?>
<svg width="16px" height="16px" viewBox="0 0 16 16" version="1.1" xmlns="http://www.w3.org/2000/svg" xmlns:xlink="http://www.w3.org/1999/xlink">
    <!-- Generator: Sketch 48.2 (47327) - http://www.bohemiancoding.com/sketch -->
    <title>icon/16px/chevron-left-circle-16px</title>
    <desc>Created with Sketch.</desc>
    <defs>
        <path d="M8,15 C4.13400675,15 1,11.8659932 1,8 C1,4.13400675 4.13400675,1 8,1 C11.8659932,1 15,4.13400675 15,8 C15,11.8659932 11.8659932,15 8,15 Z M9.54455,5.4043125 C9.27015,5.1320125 8.82565,5.1320125 8.55125,5.4043125 L6.47575,7.4616125 C6.32525,7.6142125 6.25035,7.8116125 6.25035,8.0069125 C6.25035,8.2022125 6.32525,8.3961125 6.47575,8.5452125 L8.54425,10.5962125 C8.81865,10.8678125 9.26315,10.8678125 9.53755,10.5962125 C9.81195,10.3239125 9.81195,9.8836125 9.53755,9.6120125 L7.91565,8.0034125 L9.54455,6.3885125 C9.68105,6.2527125 9.74965,6.0742125 9.74965,5.8964125 C9.74965,5.7179125 9.68105,5.5394125 9.54455,5.4043125 Z" id="path-1"></path>
    </defs>
    <g id="Symbols" stroke="none" stroke-width="1" fill="none" fill-rule="evenodd">
        <g id="icon/16px/chevron-left-circle">
            <mask id="mask-2" fill="white">
                <use xlink:href="#path-1"></use>
            </mask>
            <use id="Combined-Shape" fill="#42526E" xlink:href="#path-1"></use>
        </g>
    </g>
</svg>