<?xml version="1.0" encoding="UTF-8"?>
<svg width="16px" height="16px" viewBox="0 0 16 16" version="1.1" xmlns="http://www.w3.org/2000/svg" xmlns:xlink="http://www.w3.org/1999/xlink">
    <!-- Generator: Sketch 48.2 (47327) - http://www.bohemiancoding.com/sketch -->
    <title>bitbucket/16px/create-pull-request-16px</title>
    <desc>Created with Sketch.</desc>
    <defs>
        <path d="M10.207,6.414 C10.463,6.414 10.719,6.316 10.914,6.121 C11.218,5.817 11.278,5.369 11.108,5 L11.5,5 L11.5,7 C11.5,7.553 11.947,8 12.5,8 C13.053,8 13.5,7.553 13.5,7 L13.5,5 C13.5,3.897 12.603,3 11.5,3 L11.108,3 C11.278,2.631 11.218,2.183 10.914,1.879 C10.523,1.488 9.891,1.488 9.5,1.879 L8.086,3.293 C7.695,3.684 7.695,4.316 8.086,4.707 L9.5,6.121 C9.695,6.316 9.951,6.414 10.207,6.414 M4.5,4 C4.5,3.448 4.052,3 3.5,3 C2.948,3 2.5,3.448 2.5,4 C2.5,4.552 2.948,5 3.5,5 C4.052,5 4.5,4.552 4.5,4 M6.5,4 C6.5,5.302 5.661,6.401 4.5,6.815 L4.5,14 C4.5,14.553 4.053,15 3.5,15 C2.947,15 2.5,14.553 2.5,14 L2.5,6.815 C1.339,6.401 0.5,5.302 0.5,4 C0.5,2.346 1.846,1 3.5,1 C5.154,1 6.5,2.346 6.5,4 M15.5,12 C15.5,12.553 15.053,13 14.5,13 L13.5,13 L13.5,14 C13.5,14.553 13.053,15 12.5,15 C11.947,15 11.5,14.553 11.5,14 L11.5,13 L10.5,13 C9.947,13 9.5,12.553 9.5,12 C9.5,11.447 9.947,11 10.5,11 L11.5,11 L11.5,10 C11.5,9.447 11.947,9 12.5,9 C13.053,9 13.5,9.447 13.5,10 L13.5,11 L14.5,11 C15.053,11 15.5,11.447 15.5,12" id="path-1"></path>
    </defs>
    <g id="Symbols" stroke="none" stroke-width="1" fill="none" fill-rule="evenodd">
        <g id="bitbucket/16px/create-pull-request">
            <mask id="mask-2" fill="white">
                <use xlink:href="#path-1"></use>
            </mask>
            <use id="create-pull-request" fill="#42526E" xlink:href="#path-1"></use>
        </g>
    </g>
</svg>