<?xml version="1.0" encoding="UTF-8"?>
<svg width="16px" height="16px" viewBox="0 0 16 16" version="1.1" xmlns="http://www.w3.org/2000/svg" xmlns:xlink="http://www.w3.org/1999/xlink">
    <!-- Generator: Sketch 48.2 (47327) - http://www.bohemiancoding.com/sketch -->
    <title>icon/16px/dropbox-16px</title>
    <desc>Created with Sketch.</desc>
    <defs>
        <path d="M10.7981272,1.31922832 L7.98239026,3.65282272 L11.8650347,6.06292841 L14.6795572,3.83802862 L10.7981272,1.31922832 Z M1.32044278,3.96311851 L4.10035305,6.10968531 L7.98239026,3.65282272 L5.31603246,1.32044278 L1.32044278,3.96311851 Z M10.6778952,12.2154078 L10.669394,11.5571678 L8.00121446,9.56969595 L5.44112235,11.5298424 L5.41683305,11.5674908 L4.00562478,10.7143292 L4.00562478,12.1267519 L7.9981783,14.6807717 L11.9585485,12.1267519 L11.9585485,10.7659439 L10.6785024,11.5480593 L10.6778952,12.2154078 Z M4.09306626,6.11454317 L1.32530064,8.3534093 L3.73237017,9.80044429 L3.73358463,9.79922982 L4.25823349,10.1168124 L5.3166397,10.7525848 L7.08793682,9.40756488 L7.97510347,8.72807174 L7.97813963,8.7311079 L7.98239026,8.72807174 L7.99696384,8.73900192 L8.00607232,8.72807174 L10.1137762,10.2965532 L10.72951,10.7507631 L14.6771283,8.35098037 L11.8650347,6.0647501 L7.98481919,8.52404163 L4.09306626,6.11454317 Z M11.8650347,6.0647501 L11.8656419,6.06292841 L11.8650347,6.06292841 L11.8638202,6.06292841 L11.8650347,6.0647501 Z" id="path-1"></path>
    </defs>
    <g id="Symbols" stroke="none" stroke-width="1" fill="none" fill-rule="evenodd">
        <g id="icon/16px/dropbox">
            <mask id="mask-2" fill="white">
                <use xlink:href="#path-1"></use>
            </mask>
            <use id="Dropbox-icon" fill="#42526E" xlink:href="#path-1"></use>
        </g>
    </g>
</svg>