<?xml version="1.0" encoding="UTF-8"?>
<svg width="16px" height="16px" viewBox="0 0 16 16" version="1.1" xmlns="http://www.w3.org/2000/svg" xmlns:xlink="http://www.w3.org/1999/xlink">
    <!-- Generator: Sketch 48.2 (47327) - http://www.bohemiancoding.com/sketch -->
    <title>icon/16px/graph-bar-16px</title>
    <desc>Created with Sketch.</desc>
    <defs>
        <path d="M11.4309837,4.56353838 C11.4309837,3.80861175 12.0401409,3.1966228 12.8033772,3.1966228 C13.5613292,3.1966228 14.1757707,3.81432075 14.1757707,4.56353838 L14.1757707,9.37787138 C14.1757707,10.132798 13.5666135,10.744787 12.8033772,10.744787 C12.0454252,10.744787 11.4309837,10.127089 11.4309837,9.37787138 L11.4309837,4.56353838 Z M7.31380326,6.62630367 C7.31380326,5.86907122 7.92296045,5.25521303 8.68619674,5.25521303 C9.44414874,5.25521303 10.0585902,5.86366804 10.0585902,6.62630367 L10.0585902,9.37369633 C10.0585902,10.1309288 9.44943304,10.744787 8.68619674,10.744787 C7.92824475,10.744787 7.31380326,10.136332 7.31380326,9.37369633 L7.31380326,6.62630367 Z M3.1966228,8.68954641 C3.1966228,7.92974445 3.80577999,7.31380326 4.56901628,7.31380326 C5.32696828,7.31380326 5.94140977,7.92719439 5.94140977,8.68954641 L5.94140977,9.36904382 C5.94140977,10.1288458 5.33225258,10.744787 4.56901628,10.744787 C3.81106429,10.744787 3.1966228,10.1313958 3.1966228,9.36904382 L3.1966228,8.68954641 Z M14.1757707,11.4309837 C14.5547467,11.4309837 14.8619674,11.7382045 14.8619674,12.1171805 C14.8619674,12.4961565 14.5547467,12.8033772 14.1757707,12.8033772 L3.19325308,12.8033772 C2.05764237,12.8033772 1.13803256,11.8767121 1.13803256,10.7389336 L1.13803256,3.88281954 C1.13803256,3.50384354 1.44525331,3.1966228 1.82422931,3.1966228 C2.2032053,3.1966228 2.51042605,3.50384354 2.51042605,3.88281954 L2.51042605,10.7389336 C2.51042605,11.1210981 2.81795226,11.4309837 3.19325308,11.4309837 L14.1757707,11.4309837 Z" id="path-1"></path>
    </defs>
    <g id="Symbols" stroke="none" stroke-width="1" fill="none" fill-rule="evenodd">
        <g id="icon/16px/graph-bar">
            <mask id="mask-2" fill="white">
                <use xlink:href="#path-1"></use>
            </mask>
            <use id="Mask" fill="#3F4F71" xlink:href="#path-1"></use>
        </g>
    </g>
</svg>