<?xml version="1.0" encoding="UTF-8"?>
<svg width="16px" height="16px" viewBox="0 0 16 16" version="1.1" xmlns="http://www.w3.org/2000/svg" xmlns:xlink="http://www.w3.org/1999/xlink">
    <!-- Generator: Sketch 48.2 (47327) - http://www.bohemiancoding.com/sketch -->
    <title>icon/16px/import-16px</title>
    <desc>Created with Sketch.</desc>
    <defs>
        <path d="M7.98868692,14.7881509 L2.71549838,14.7881509 C1.88707126,14.7881509 1.21549838,14.1165781 1.21549838,13.2881509 L1.21549838,2.71184905 C1.21549838,1.88342193 1.88707126,1.21184905 2.71549838,1.21184905 L7.98868692,1.21184905 L7.98868692,2.72296783 L2.69983804,2.7298783 L2.69983804,13.2865665 L8,13.279656 L7.98868692,14.7881509 Z M6.87647134,8.751994 L7.78939876,9.69277928 C7.78988156,9.69327681 7.79036369,9.69377498 7.79084516,9.6942738 C8.08951976,10.0037118 8.08079427,10.4966845 7.77135625,10.7953591 C7.45972331,11.0961523 6.96435711,11.0911378 6.65887708,10.7840978 L4.46488326,8.5789 L4.45103583,8.56516618 C4.44494866,8.55912896 4.43896107,8.55299214 4.43307548,8.54675824 C4.13624527,8.23236107 4.15048609,7.73686338 4.46488326,7.44003317 L6.66371298,5.2076132 C6.96589608,4.90081382 7.45919362,4.89587488 7.76745894,5.19656239 C8.0758762,5.49739811 8.08363368,5.99077389 7.78482679,6.30115716 L6.87647134,7.24470413 L14.046287,7.24470413 C14.4625136,7.24470413 14.7999319,7.58212246 14.7999319,7.99834907 C14.7999319,8.41457567 14.4625136,8.751994 14.046287,8.751994 L6.87647134,8.751994 Z" id="path-1"></path>
    </defs>
    <g id="Symbols" stroke="none" stroke-width="1" fill="none" fill-rule="evenodd">
        <g id="icon/16px/import">
            <mask id="mask-2" fill="white">
                <use xlink:href="#path-1"></use>
            </mask>
            <use id="Combined-Shape" fill="#41516F" xlink:href="#path-1"></use>
        </g>
    </g>
</svg>