<?xml version="1.0" encoding="UTF-8"?>
<svg width="16px" height="16px" viewBox="0 0 16 16" version="1.1" xmlns="http://www.w3.org/2000/svg" xmlns:xlink="http://www.w3.org/1999/xlink">
    <!-- Generator: Sketch 48.2 (47327) - http://www.bohemiancoding.com/sketch -->
    <title>confluence/16px/insert-column-after</title>
    <desc>Created with Sketch.</desc>
    <defs></defs>
    <g id="Editor-icons---v2" stroke="none" stroke-width="1" fill="none" fill-rule="evenodd">
        <g id="confluence/16px/insert-column-after" fill="#42526E">
            <path d="M2,2 L7,2 L7,13 L9,13 L9,7 L11,7 L11,14 C11,14.5522847 10.5522847,15 10,15 L2,15 C1.44771525,15 1,14.5522847 1,14 L1,3 C1,2.44771525 1.44771525,2 2,2 Z M5,4 L3,4 L3,13 L5,13 L5,4 Z" id="Combined-Shape" fill-rule="nonzero"></path>
            <path d="M12,2 L13.5,2 C13.7761424,2 14,2.22385763 14,2.5 L14,3.5 C14,3.77614237 13.7761424,4 13.5,4 L12,4 L12,5.5 C12,5.77614237 11.7761424,6 11.5,6 L10.5,6 C10.2238576,6 10,5.77614237 10,5.5 L10,4 L8.5,4 C8.22385763,4 8,3.77614237 8,3.5 L8,2.5 C8,2.22385763 8.22385763,2 8.5,2 L10,2 L10,0.5 C10,0.223857625 10.2238576,0 10.5,0 L11.5,0 C11.7761424,0 12,0.223857625 12,0.5 L12,2 Z" id="Combined-Shape"></path>
        </g>
    </g>
</svg>