<?xml version="1.0" encoding="UTF-8"?>
<svg width="16px" height="16px" viewBox="0 0 16 16" version="1.1" xmlns="http://www.w3.org/2000/svg" xmlns:xlink="http://www.w3.org/1999/xlink">
    <!-- Generator: Sketch 48.2 (47327) - http://www.bohemiancoding.com/sketch -->
    <title>icon/16px/lock-circle-small-16px</title>
    <desc>Created with Sketch.</desc>
    <defs>
        <path d="M6.6,8 L7.3,8 L7.3,7.3 L6.6,7.3 L6.6,8 C6.21366425,8.00007575 5.90014,8.31364667 5.90014,8.7 L5.90014,9.79920273 C5.90014,10.3519278 6.34961357,10.8 6.89548137,10.8 L9.10479863,10.8 C9.65451049,10.8 10.10014,10.354644 10.10014,9.79920273 L10.10014,8.7 C10.10014,8.3136 9.78654,8 9.40014,8 L8.70014,8 L7.30014,8 L6.60014,8 C6.60009333,8 6.60004667,8 6.6,8.00000001 Z M8,15 C4.13400675,15 1,11.8659932 1,8 C1,4.13400675 4.13400675,1 8,1 C11.8659932,1 15,4.13400675 15,8 C15,11.8659932 11.8659932,15 8,15 Z M8.014,5.2 L7.986,5.2 C7.2202,5.2 6.6,5.8202 6.6,6.586 L6.6,7.3 L7.3,7.3 L7.3,6.593 C7.3,6.2101 7.6101,5.9 7.993,5.9 L8.007,5.9 C8.3899,5.9 8.7,6.2101 8.7,6.593 L8.7,7.3 L9.4,7.3 L9.4,6.586 C9.4,5.8202 8.7798,5.2 8.014,5.2 Z M8.7,7.3 L8.7,8 L9.4,8 L9.4,7.3 L8.7,7.3 Z" id="path-1"></path>
    </defs>
    <g id="Symbols" stroke="none" stroke-width="1" fill="none" fill-rule="evenodd">
        <g id="icon/16px/lock-circle-small">
            <mask id="mask-2" fill="white">
                <use xlink:href="#path-1"></use>
            </mask>
            <use id="lock-circle-small" fill="#42526E" xlink:href="#path-1"></use>
        </g>
    </g>
</svg>