<?xml version="1.0" encoding="UTF-8"?>
<svg width="16px" height="16px" viewBox="0 0 16 16" version="1.1" xmlns="http://www.w3.org/2000/svg" xmlns:xlink="http://www.w3.org/1999/xlink">
    <!-- Generator: Sketch 48.2 (47327) - http://www.bohemiancoding.com/sketch -->
    <title>icon/16px/office-building-filled-16px</title>
    <desc>Created with Sketch.</desc>
    <defs>
        <path d="M4.97999997,8.75500001 L3.46999995,8.75500001 L3.46999995,10.265 L4.97999997,10.265 L4.97999997,14.7950001 L2.72144024,14.7950001 C1.88393338,14.7950001 1.20499992,14.0693425 1.20499992,13.1724037 L1.20499992,5.09259635 C1.20499992,4.1964611 1.88597245,3.46999995 2.72144024,3.46999995 L4.97999997,3.46999995 L4.97999997,6.48999998 L3.46999995,6.48999998 L3.46999995,8 L4.97999997,8 L4.97999997,8.75500001 Z M5.73499997,2.71129236 C5.73499997,1.87939002 6.4159725,1.20499992 7.25144029,1.20499992 L13.2785598,1.20499992 C14.1160666,1.20499992 14.7950001,1.87893014 14.7950001,2.71129236 L14.7950001,13.2887076 C14.7950001,14.12061 14.1140275,14.7950001 13.2785598,14.7950001 L5.73499997,14.7950001 L5.73499997,2.71129236 Z M8,4.22499996 L8,5.73499997 L9.51000002,5.73499997 L9.51000002,4.22499996 L8,4.22499996 Z M8,6.48999998 L8,8 L9.51000002,8 L9.51000002,6.48999998 L8,6.48999998 Z M8,8.75500001 L8,10.265 L9.51000002,10.265 L9.51000002,8.75500001 L8,8.75500001 Z M9.51000002,11.02 L9.51000002,13.2850001 L11.02,13.2850001 L11.02,11.02 L9.51000002,11.02 Z M11.02,4.22499996 L11.02,5.73499997 L12.5300001,5.73499997 L12.5300001,4.22499996 L11.02,4.22499996 Z M11.02,6.48999998 L11.02,8 L12.5300001,8 L12.5300001,6.48999998 L11.02,6.48999998 Z M11.02,8.75500001 L11.02,10.265 L12.5300001,10.265 L12.5300001,8.75500001 L11.02,8.75500001 Z" id="path-1"></path>
    </defs>
    <g id="Symbols" stroke="none" stroke-width="1" fill="none" fill-rule="evenodd">
        <g id="icon/16px/office-building-filled">
            <mask id="mask-2" fill="white">
                <use xlink:href="#path-1"></use>
            </mask>
            <use id="Combined-Shape" fill="#42526E" fill-rule="nonzero" xlink:href="#path-1"></use>
        </g>
    </g>
</svg>