<?xml version="1.0" encoding="UTF-8"?>
<svg width="16px" height="16px" viewBox="0 0 16 16" version="1.1" xmlns="http://www.w3.org/2000/svg" xmlns:xlink="http://www.w3.org/1999/xlink">
    <!-- Generator: Sketch 48.2 (47327) - http://www.bohemiancoding.com/sketch -->
    <title>icon/16px/people-16px</title>
    <desc>Created with Sketch.</desc>
    <defs>
        <path d="M11.0441034,8 C9.78319243,8 8.76102214,6.97782971 8.76102214,5.71691877 C8.76102214,4.45600782 9.78319243,3.43383753 11.0441034,3.43383753 C12.3050143,3.43383753 13.3271846,4.45600782 13.3271846,5.71691877 C13.3271846,6.97782971 12.3050143,8 11.0441034,8 Z M4.95588675,5.71691877 C3.6949758,5.71691877 2.67280552,4.69474848 2.67280552,3.43383753 C2.67280552,2.17292658 3.6949758,1.1507563 4.95588675,1.1507563 C6.2167977,1.1507563 7.23896798,2.17292658 7.23896798,3.43383753 C7.23896798,4.69474848 6.2167977,5.71691877 4.95588675,5.71691877 Z M7.23896798,10.205519 C7.23896798,9.40774814 7.88781539,8.76102708 8.68831478,8.76102708 L13.399892,8.76102708 C14.2003441,8.76102708 14.8492388,9.40682016 14.8492388,10.2046387 L14.8492388,13.1216106 C14.8492388,15.4251214 7.23896798,15.4251214 7.23896798,13.1216106 L7.23896798,10.205519 Z M8.76102301,8 L8.64218602,8 C7.45527096,8 6.47795199,8.97059834 6.47795199,10.1678921 L6.47795199,12.4238 C4.23627791,12.8304971 1.15076123,12.3759454 1.15076123,10.9139727 L1.15076123,8.00228308 C1.15076123,7.16058713 1.82579241,6.47794584 2.67281574,6.47794584 L7.23897925,6.47794584 C8.07790936,6.47794584 8.75778492,7.15127662 8.76102214,8 Z" id="path-1"></path>
    </defs>
    <g id="Symbols" stroke="none" stroke-width="1" fill="none" fill-rule="evenodd">
        <g id="icon/16px/people">
            <mask id="mask-2" fill="white">
                <use xlink:href="#path-1"></use>
            </mask>
            <use id="Combined-Shape" fill="#3F4F71" xlink:href="#path-1"></use>
        </g>
    </g>
</svg>