<?xml version="1.0" encoding="UTF-8"?>
<svg width="16px" height="16px" viewBox="0 0 16 16" version="1.1" xmlns="http://www.w3.org/2000/svg" xmlns:xlink="http://www.w3.org/1999/xlink">
    <!-- Generator: Sketch 48.2 (47327) - http://www.bohemiancoding.com/sketch -->
    <title>icon/16px/redo-16px</title>
    <desc>Created with Sketch.</desc>
    <defs>
        <path d="M13.032304,7.40338489 L13.032304,6.24874159 C13.032304,5.76539427 13.4245858,5.37311239 13.9088088,5.37311239 C14.3930317,5.37311239 14.7861893,5.76539427 14.7861893,6.24874159 L14.7861893,9.66369549 C14.7861893,10.1952024 14.3536284,10.6268876 13.8212459,10.6268876 L10.4097945,10.6268876 C9.92469591,10.6268876 9.53241403,10.2346057 9.53241403,9.75125841 C9.53241403,9.26791109 9.92469591,8.8756292 10.4097945,8.8756292 L11.9740214,8.8756292 C10.9543154,7.78014967 9.48449757,7.1243708 7.89498742,7.1243708 C5.76107904,7.1243708 3.85045612,8.30734585 2.94943367,10.1269033 C2.73402888,10.5629667 2.18938752,10.7486001 1.73406033,10.541076 C1.27960877,10.3326762 1.08609472,9.81167682 1.30237513,9.37386222 C2.50286277,6.95099621 5.05181939,5.37311239 7.89498742,5.37311239 C9.86184012,5.37311239 11.6925747,6.12733259 13.032304,7.40338489 Z" id="path-1"></path>
    </defs>
    <g id="Symbols" stroke="none" stroke-width="1" fill="none" fill-rule="evenodd">
        <g id="icon/16px/redo">
            <mask id="mask-2" fill="white">
                <use xlink:href="#path-1"></use>
            </mask>
            <use id="redo-small" fill="#42526E" xlink:href="#path-1"></use>
        </g>
    </g>
</svg>