<?xml version="1.0" encoding="UTF-8"?>
<svg width="16px" height="16px" viewBox="0 0 16 16" version="1.1" xmlns="http://www.w3.org/2000/svg" xmlns:xlink="http://www.w3.org/1999/xlink">
    <!-- Generator: Sketch 48.2 (47327) - http://www.bohemiancoding.com/sketch -->
    <title>confluence/16px/Remove-table</title>
    <desc>Created with Sketch.</desc>
    <defs></defs>
    <g id="Editor-icons---v2" stroke="none" stroke-width="1" fill="none" fill-rule="evenodd">
        <g id="confluence/16px/Remove-table" fill="#42526E">
            <path d="M1.11664968,3.53086324 L0.292893219,2.70710678 C-0.0976310729,2.31658249 -0.0976310729,1.68341751 0.292893219,1.29289322 C0.683417511,0.902368927 1.31658249,0.902368927 1.70710678,1.29289322 L14.4350288,14.0208153 C14.8255531,14.4113396 14.8255531,15.0445046 14.4350288,15.4350288 C14.0445046,15.8255531 13.4113396,15.8255531 13.0208153,15.4350288 L11.5857864,14 L2,14 C1.44771525,14 1,13.5522847 1,13 L1,4 C1,3.83045749 1.04219228,3.67076951 1.11664968,3.53086324 Z M6.58578644,9 L5.58578644,8 L3,8 L3,9 L6.58578644,9 Z M5.41421356,3 L14,3 C14.5522847,3 15,3.44771525 15,4 L15,12.5857864 L11.4142136,9 L13,9 L13,8 L10.4142136,8 L5.41421356,3 Z M3,11 L3,12 L7,12 L7,11 L3,11 Z M9,5 L9,6 L13,6 L13,5 L9,5 Z" id="Combined-Shape"></path>
        </g>
    </g>
</svg>