<?xml version="1.0" encoding="UTF-8"?>
<svg width="16px" height="16px" viewBox="0 0 16 16" version="1.1" xmlns="http://www.w3.org/2000/svg" xmlns:xlink="http://www.w3.org/1999/xlink">
    <!-- Generator: Sketch 48.2 (47327) - http://www.bohemiancoding.com/sketch -->
    <title>icon/16px/share-16px</title>
    <desc>Created with Sketch.</desc>
    <defs>
        <path d="M5.72112577,7.9886584 C5.72114419,7.99243677 5.7211534,7.99621731 5.7211534,8 C5.7211534,8.10102032 5.71458018,8.20050538 5.70183812,8.29805081 L10.7274909,11.1996979 C11.1427973,10.6408969 11.8079646,10.2788466 12.5576932,10.2788466 C13.8162654,10.2788466 14.8365398,11.299121 14.8365398,12.5576932 C14.8365398,13.8162654 13.8162654,14.8365398 12.5576932,14.8365398 C11.3460095,14.8365398 10.3551987,13.8908706 10.2830545,12.6973261 L5.01071972,9.65325291 C4.60216243,10.0409712 4.050014,10.2788466 3.4423068,10.2788466 C2.18373458,10.2788466 1.16346021,9.25857222 1.16346021,8 C1.16346021,6.74142778 2.18373458,5.7211534 3.4423068,5.7211534 C4.14533379,5.7211534 4.77400618,6.03950328 5.19203043,6.53990949 L10.2842074,3.59985348 C10.280653,3.54779865 10.2788466,3.49526368 10.2788466,3.4423068 C10.2788466,2.18373458 11.299121,1.16346021 12.5576932,1.16346021 C13.8162654,1.16346021 14.8365398,2.18373458 14.8365398,3.4423068 C14.8365398,4.70087903 13.8162654,5.7211534 12.5576932,5.7211534 C11.902111,5.7211534 11.3111861,5.44432221 10.8954387,5.0011798 L5.72112574,7.9886584 Z M3.4423068,8.75961553 C3.86183088,8.75961553 4.20192234,8.41952407 4.20192234,8 C4.20192234,7.58047593 3.86183088,7.24038447 3.4423068,7.24038447 C3.02278273,7.24038447 2.68269127,7.58047593 2.68269127,8 C2.68269127,8.41952407 3.02278273,8.75961553 3.4423068,8.75961553 Z M12.5576932,4.20192234 C12.9772173,4.20192234 13.3173087,3.86183088 13.3173087,3.4423068 C13.3173087,3.02278273 12.9772173,2.68269127 12.5576932,2.68269127 C12.1381691,2.68269127 11.7980777,3.02278273 11.7980777,3.4423068 C11.7980777,3.86183088 12.1381691,4.20192234 12.5576932,4.20192234 Z M12.5576932,13.3173087 C12.9772173,13.3173087 13.3173087,12.9772173 13.3173087,12.5576932 C13.3173087,12.1381691 12.9772173,11.7980777 12.5576932,11.7980777 C12.1381691,11.7980777 11.7980777,12.1381691 11.7980777,12.5576932 C11.7980777,12.9772173 12.1381691,13.3173087 12.5576932,13.3173087 Z" id="path-1"></path>
    </defs>
    <g id="Symbols" stroke="none" stroke-width="1" fill="none" fill-rule="evenodd">
        <g id="icon/16px/share">
            <mask id="mask-2" fill="white">
                <use xlink:href="#path-1"></use>
            </mask>
            <use id="share-small" fill="#42526E" xlink:href="#path-1"></use>
        </g>
    </g>
</svg>