<?xml version="1.0" encoding="UTF-8"?>
<svg width="16px" height="16px" viewBox="0 0 16 16" version="1.1" xmlns="http://www.w3.org/2000/svg" xmlns:xlink="http://www.w3.org/1999/xlink">
    <!-- Generator: Sketch 48.2 (47327) - http://www.bohemiancoding.com/sketch -->
    <title>icon/16px/shortcut-16px</title>
    <desc>Created with Sketch.</desc>
    <defs>
        <path d="M12.1880527,2.75161304 L10.9990783,2.75161304 C10.584992,2.75161304 10.2493087,2.41592977 10.2493087,2.00184348 C10.2493087,1.58775718 10.584992,1.25207391 10.9990783,1.25207391 L13.9981565,1.25207391 C14.4122428,1.25207391 14.7479261,1.58775718 14.7479261,2.00184348 L14.7479261,5.00092174 C14.7479261,5.41500804 14.4122428,5.7506913 13.9981565,5.7506913 C13.5840702,5.7506913 13.248387,5.41500804 13.248387,5.00092174 L13.248387,3.81194733 L8.53016714,8.53016714 C8.23736392,8.82297037 7.76263608,8.82297037 7.46983286,8.53016714 C7.17702963,8.23736392 7.17702963,7.76263608 7.46983286,7.46983286 L12.1880527,2.75161304 Z M13.248387,13.248387 L13.248387,8.74976957 L14.7479261,8.74976957 L14.7479261,13.2499516 C14.7479261,14.0772601 14.0786647,14.7479261 13.2520689,14.7479261 L2.74793114,14.7479261 C1.92179201,14.7479261 1.25207391,14.0772469 1.25207391,13.2528404 L1.25207391,2.74715962 C1.25207391,1.92144658 1.92376083,1.25207391 2.74965742,1.25207391 L7.25023043,1.25207391 L7.25023043,2.75161304 L2.75161304,2.75161304 L2.75161304,13.248387 L13.248387,13.248387 Z" id="path-1"></path>
    </defs>
    <g id="Symbols" stroke="none" stroke-width="1" fill="none" fill-rule="evenodd">
        <g id="icon/16px/shortcut">
            <mask id="mask-2" fill="white">
                <use xlink:href="#path-1"></use>
            </mask>
            <use id="Shortcut" fill="#42526E" fill-rule="nonzero" xlink:href="#path-1"></use>
        </g>
    </g>
</svg>