<?xml version="1.0" encoding="UTF-8"?>
<svg width="16px" height="16px" viewBox="0 0 16 16" version="1.1" xmlns="http://www.w3.org/2000/svg" xmlns:xlink="http://www.w3.org/1999/xlink">
    <!-- Generator: Sketch 48.2 (47327) - http://www.bohemiancoding.com/sketch -->
    <title>icon/16px/sign-in-16px</title>
    <desc>Created with Sketch.</desc>
    <defs>
        <path d="M9.11517224,7.26099631 L8.22391812,6.36162881 C7.92536063,6.0601153 7.92536063,5.57163386 8.22391812,5.26938135 C8.37319687,5.1193636 8.56903284,5.04398522 8.76486882,5.04398522 C8.9607048,5.04398522 9.15654078,5.1193636 9.30655853,5.26938135 L11.4718394,7.45387627 C11.7689188,7.75538978 11.7689188,8.24387122 11.4718394,8.54538473 L9.30655853,10.7291406 C9.00726204,11.0313932 8.52247561,11.0313932 8.22391812,10.7291406 C7.92536063,10.4283661 7.92536063,9.9391457 8.22391812,9.63837119 L9.11517224,8.73900369 L2.07097336,8.73900369 C1.67191136,8.73900369 1.34896675,8.40793004 1.34896675,8.000739 C1.34896675,7.59280896 1.67191136,7.26099631 2.07097336,7.26099631 L9.11517224,7.26099631 Z M10.5887299,1.34896675 L13.1774599,1.34896675 C13.991842,1.34896675 14.6510333,2.00815804 14.6510333,2.82327912 L14.6510333,13.1767209 C14.6510333,13.991103 13.9903639,14.6510333 13.1774599,14.6510333 L10.5887299,14.6510333 L8,14.6510333 L8,13.1730259 L13.1730259,13.1730259 L13.1730259,2.82697414 L8,2.82697414 L8,1.34896675 L10.5887299,1.34896675 Z" id="path-1"></path>
    </defs>
    <g id="Symbols" stroke="none" stroke-width="1" fill="none" fill-rule="evenodd">
        <g id="icon/16px/sign-in">
            <mask id="mask-2" fill="white">
                <use xlink:href="#path-1"></use>
            </mask>
            <use id="Combined-Shape" fill="#42526E" xlink:href="#path-1"></use>
        </g>
    </g>
</svg>