<?xml version="1.0" encoding="UTF-8"?>
<svg width="16px" height="16px" viewBox="0 0 16 16" version="1.1" xmlns="http://www.w3.org/2000/svg" xmlns:xlink="http://www.w3.org/1999/xlink">
    <!-- Generator: Sketch 48.2 (47327) - http://www.bohemiancoding.com/sketch -->
    <title>icon/16px/vid-raised-hand-16px</title>
    <desc>Created with Sketch.</desc>
    <defs>
        <path d="M6.57568347,1.25323751 C8.23174305,1.25323751 9.57424458,2.59573904 9.57424458,4.25179861 C9.57424458,5.90785819 8.23174305,7.25035972 6.57568347,7.25035972 C4.9196239,7.25035972 3.57712237,5.90785819 3.57712237,4.25179861 C3.57712237,2.59573904 4.9196239,1.25323751 6.57568347,1.25323751 Z M8.8246043,8 C10.0666489,8 11.0735251,9.00687619 11.0735251,10.2489208 L11.0735251,12.9476258 C9.82961831,14.1008524 8.19695739,14.7432108 6.50071945,14.7467625 C4.8671618,14.7220755 3.29710931,14.1100211 2.07784181,13.0225899 L2.07784181,10.2489208 C2.07784181,9.00687619 3.08471796,8 4.32676264,8 L8.8246043,8 Z M10.9197574,6.75571908 L12.4228776,4.7515588 L12.4228776,2.99521471 C12.4228776,2.45676655 12.8668735,2.00287778 13.4145702,2.00287778 L12.9304656,2.00287778 C13.4804337,2.00287778 13.9221582,2.44714135 13.9221582,2.99516824 L13.9221582,4.25902853 C13.9221582,4.79963715 13.6511423,5.61267346 13.3168273,6.0584268 L12.1286402,7.64267635 C11.7891936,8.09527174 11.1681126,8.18338664 10.7299553,7.85476863 L11.1172389,8.14523137 C10.6772645,7.81525055 10.5906661,7.19450752 10.9197574,6.75571908 Z" id="path-1"></path>
    </defs>
    <g id="Symbols" stroke="none" stroke-width="1" fill="none" fill-rule="evenodd">
        <g id="icon/16px/vid-raised-hand">
            <mask id="mask-2" fill="white">
                <use xlink:href="#path-1"></use>
            </mask>
            <use id="Combined-Shape" fill="#42526E" xlink:href="#path-1"></use>
        </g>
    </g>
</svg>