<?xml version="1.0" encoding="UTF-8"?>
<svg width="16px" height="16px" viewBox="0 0 16 16" version="1.1" xmlns="http://www.w3.org/2000/svg" xmlns:xlink="http://www.w3.org/1999/xlink">
    <!-- Generator: Sketch 48.2 (47327) - http://www.bohemiancoding.com/sketch -->
    <title>icon/16px/video-circle-16px</title>
    <desc>Created with Sketch.</desc>
    <defs>
        <path d="M8,15 C4.13400675,15 1,11.8659932 1,8 C1,4.13400675 4.13400675,1 8,1 C11.8659932,1 15,4.13400675 15,8 C15,11.8659932 11.8659932,15 8,15 Z M11.759,10.0675706 C11.9588,10.164369 12.2,10.0327666 12.2,9.82774978 L12.2,6.17225022 C12.2,5.96723336 11.9588,5.83563103 11.759,5.93242944 L10.1,6.73563873 L10.1,9.26490508 L11.759,10.0675706 Z M3.8,6.89534137 L3.8,9.10465863 C3.8,9.65052643 4.24823808,10.1 4.80116777,10.1 L8.39883223,10.1 C8.96057739,10.1 9.4,9.65437049 9.4,9.10465863 L9.4,6.89534137 C9.4,6.34947357 8.95176192,5.9 8.39883223,5.9 L4.80116777,5.9 C4.23942261,5.9 3.8,6.34562951 3.8,6.89534137 Z" id="path-1"></path>
    </defs>
    <g id="Symbols" stroke="none" stroke-width="1" fill="none" fill-rule="evenodd">
        <g id="icon/16px/video-circle">
            <mask id="mask-2" fill="white">
                <use xlink:href="#path-1"></use>
            </mask>
            <use id="Combined-Shape" fill="#42526E" xlink:href="#path-1"></use>
        </g>
    </g>
</svg>