<?xml version="1.0" encoding="UTF-8"?>
<svg width="16px" height="16px" viewBox="0 0 16 16" version="1.1" xmlns="http://www.w3.org/2000/svg" xmlns:xlink="http://www.w3.org/1999/xlink">
    <!-- Generator: Sketch 48.2 (47327) - http://www.bohemiancoding.com/sketch -->
    <title>icon/16px/watch-16px</title>
    <desc>Created with Sketch.</desc>
    <defs>
        <path d="M8.00035011,2.4 C11.8647619,2.4 14.9999998,5.78869994 14.9999998,7.9999999 C14.9999998,10.1601999 11.7968177,13.5999998 8.00035011,13.5999998 C4.20388247,13.5999998 1,10.1601999 1,7.9999999 C1,5.78869994 4.13593831,2.4 8.00035011,2.4 Z M8.00035011,12.1999998 C11.1755139,12.1999998 13.5990892,9.21799988 13.5990892,7.9999999 C13.5990892,6.58109993 11.0641415,3.79999998 8.00035011,3.79999998 C4.82168403,3.79999998 2.40091057,6.59929993 2.40091057,7.9999999 C2.40091057,9.21799988 4.82448585,12.1999998 8.00035011,12.1999998 Z M7.99999988,5.18907995 C9.54419985,5.18907995 10.7999998,6.44487993 10.7999998,7.9890799 C10.7999998,9.53327988 9.54419985,10.7890799 7.99999988,10.7890799 C6.45579991,10.7890799 5.19999993,9.53327988 5.19999993,7.9890799 C5.19999993,6.44487993 6.45579991,5.18907995 7.99999988,5.18907995 Z M7.99999988,9.38907988 C8.77209987,9.38907988 9.39999986,8.76117989 9.39999986,7.9890799 C9.39999986,7.21697992 8.77209987,6.58907993 7.99999988,6.58907993 C7.22789989,6.58907993 6.5999999,7.21697992 6.5999999,7.9890799 C6.5999999,8.76117989 7.22789989,9.38907988 7.99999988,9.38907988 Z" id="path-1"></path>
    </defs>
    <g id="Symbols" stroke="none" stroke-width="1" fill="none" fill-rule="evenodd">
        <g id="icon/16px/watch">
            <mask id="mask-2" fill="white">
                <use xlink:href="#path-1"></use>
            </mask>
            <use id="watch" fill="#42526E" xlink:href="#path-1"></use>
        </g>
    </g>
</svg>