<?xml version="1.0" encoding="UTF-8"?>
<svg width="24px" height="24px" viewBox="0 0 24 24" version="1.1" xmlns="http://www.w3.org/2000/svg" xmlns:xlink="http://www.w3.org/1999/xlink">
    <!-- Generator: Sketch 48.1 (47250) - http://www.bohemiancoding.com/sketch -->
    <title>icon/20px/chevron-right-circle</title>
    <desc>Created with Sketch.</desc>
    <defs>
        <path d="M12,22 C6.4771525,22 2,17.5228475 2,12 C2,6.4771525 6.4771525,2 12,2 C17.5228475,2 22,6.4771525 22,12 C22,17.5228475 17.5228475,22 12,22 Z M8.29175,10.293 C7.90275,10.685 7.90275,11.32 8.29175,11.712 L11.23075,14.677 C11.44875,14.892 11.73075,14.999 12.00975,14.999 C12.28875,14.999 12.56575,14.892 12.77875,14.677 L15.70875,11.722 C16.09675,11.33 16.09675,10.695 15.70875,10.303 C15.31975,9.911 14.69075,9.911 14.30275,10.303 L12.00475,12.62 L9.69775,10.293 C9.50375,10.098 9.24875,10 8.99475,10 C8.73975,10 8.48475,10.098 8.29175,10.293 Z" id="path-1"></path>
    </defs>
    <g id="Symbols" stroke="none" stroke-width="1" fill="none" fill-rule="evenodd">
        <g id="icon/20px/chevron-right-circle">
            <mask id="mask-2" fill="white">
                <use xlink:href="#path-1"></use>
            </mask>
            <use id="Combined-Shape" fill="#405070" transform="translate(12.000000, 12.000000) rotate(-90.000000) translate(-12.000000, -12.000000) " xlink:href="#path-1"></use>
        </g>
    </g>
</svg>