<?xml version="1.0" encoding="UTF-8"?>
<svg width="24px" height="24px" viewBox="0 0 24 24" version="1.1" xmlns="http://www.w3.org/2000/svg" xmlns:xlink="http://www.w3.org/1999/xlink">
    <!-- Generator: Sketch 48.1 (47250) - http://www.bohemiancoding.com/sketch -->
    <title>icon/20px/Google Drive</title>
    <desc>Created with Sketch.</desc>
    <defs>
        <path d="M15.8108899,2.90075709 L9.03386011,2.96872054 L14.8801482,13.0945603 L21.657178,13.0258814 L15.8108899,2.90075709 Z M2,14.216315 L5.44682038,20.0511566 L11.2931085,9.92531693 L7.84628812,4.09047529 L2,14.216315 Z M10.3072807,14.3908738 L6.97778668,20.2929635 L18.6703629,20.2929635 L21.9998569,14.3908738 L10.3072807,14.3908738 Z" id="path-1"></path>
    </defs>
    <g id="Symbols" stroke="none" stroke-width="1" fill="none" fill-rule="evenodd">
        <g id="icon/20px/Google-Drive">
            <mask id="mask-2" fill="white">
                <use xlink:href="#path-1"></use>
            </mask>
            <use id="GDrive-icon" fill="#172B4D" xlink:href="#path-1"></use>
        </g>
    </g>
</svg>