<?xml version="1.0" encoding="UTF-8"?>
<svg width="24px" height="24px" viewBox="0 0 24 24" version="1.1" xmlns="http://www.w3.org/2000/svg" xmlns:xlink="http://www.w3.org/1999/xlink">
    <!-- Generator: Sketch 48.1 (47250) - http://www.bohemiancoding.com/sketch -->
    <title>icon/20px/home-circle</title>
    <desc>Created with Sketch.</desc>
    <defs>
        <path d="M8.00000422,12 C8.00000141,12.0009761 8,12.0019526 8,12.0029293 L8,16.9970707 C8,17.5621186 8.4463856,18 8.99703014,18 L15.0029699,18 C15.5469637,18 16,17.5509732 16,16.9970707 L16,12.0029293 C16,12.0019525 15.9999987,12.0009761 15.999996,12 L16.9975267,12 C17.544239,12 17.6812982,11.6812982 17.2881596,11.2881596 L12.3573589,6.35735893 C12.1604855,6.16048551 11.840005,6.15999504 11.6426411,6.35735893 L6.71184039,11.2881596 C6.32258606,11.6774139 6.44882258,12 7.00247329,12 L8.00000392,12 Z M12,22 C6.47715253,22 2,17.5228475 2,12 C2,6.47715253 6.47715253,2 12,2 C17.5228475,2 22,6.47715253 22,12 C22,17.5228475 17.5228475,22 12,22 Z M10.6666667,15.5172329 C10.6666667,14.7797037 11.2584864,14.1818182 12,14.1818182 C12.7363797,14.1818182 13.3333333,14.7784091 13.3333333,15.5172329 L13.3333333,18 L10.6666667,18 L10.6666667,15.5172329 Z" id="path-1"></path>
    </defs>
    <g id="Symbols" stroke="none" stroke-width="1" fill="none" fill-rule="evenodd">
        <g id="icon/20px/home-circle">
            <mask id="mask-2" fill="white">
                <use xlink:href="#path-1"></use>
            </mask>
            <use id="Combined-Shape" fill="#405070" xlink:href="#path-1"></use>
        </g>
    </g>
</svg>