<?xml version="1.0" encoding="UTF-8"?>
<svg width="24px" height="24px" viewBox="0 0 24 24" version="1.1" xmlns="http://www.w3.org/2000/svg" xmlns:xlink="http://www.w3.org/1999/xlink">
    <!-- Generator: Sketch 48.1 (47250) - http://www.bohemiancoding.com/sketch -->
    <title>icon/20px/mention</title>
    <desc>Created with Sketch.</desc>
    <defs>
        <path d="M11.4394391,11.5 C10.318671,12.6678945 9.62986689,14.2535079 9.62986689,16 C9.62986689,17.6258575 10.2268023,19.1122932 11.2134635,20.2520974 C7.660722,20.9478241 2.50017082,20.1791582 2.50017082,17.9460997 C2.50017082,21.3513001 2.50017082,13.5001103 2.50017082,13.5001103 C2.50017082,12.3954799 3.40212118,11.5 4.50870102,11.5 L11.4394391,11.5 Z M20.6531708,12.623 C21.4484708,13.6592 21.6948708,14.9385 21.3439708,16.2255 C21.0029708,17.4795 20.3924708,18.3034 19.5289708,18.6719 C18.3904708,19.1581 17.3300708,18.6202 17.2145708,18.5575 C16.9714708,18.4156 16.7888708,18.2506 16.6392708,18.0757 C16.1915708,18.4035 15.6998708,18.596 15.2224708,18.596 C14.9331708,18.596 14.6504708,18.53 14.3897708,18.3903 C13.9684708,18.1648 13.6538708,17.7666 13.5075708,17.2694 C13.2974708,16.5555 13.4272708,15.6964 13.8639708,14.9121 C14.5822708,13.624 16.0320708,13.03 17.0946708,13.5767 C17.1518708,13.6053 17.1881708,13.6592 17.2409708,13.6944 C17.4741708,13.5349 17.7733708,13.4799 18.0494708,13.5943 C18.4916708,13.7747 18.7028708,14.2774 18.5202708,14.7174 L18.4476708,14.8901 C18.0098708,15.9417 17.6798708,16.8305 18.0626708,17.0582 C18.0626708,17.0582 18.0615708,17.0571 18.0626708,17.0571 C18.0670708,17.0571 18.4850708,17.2485 18.8568708,17.0868 C19.2000708,16.9328 19.4838708,16.4796 19.6763708,15.7745 C19.8875708,14.9957 19.7544708,14.2862 19.2803708,13.668 C18.6049708,12.7891 17.3267708,12.2215 16.0254708,12.2215 C13.9321708,12.2215 12.2293708,13.9155 12.2293708,16 C12.2293708,18.0834 13.9321708,19.7796 16.0254708,19.7796 C16.5028708,19.7796 16.8900708,20.1646 16.8900708,20.6398 C16.8900708,21.115 16.5028708,21.5 16.0254708,21.5 C12.9784708,21.5 10.5001708,19.0327 10.5001708,16 C10.5001708,12.9673 12.9784708,10.5 16.0254708,10.5 C17.8734708,10.5 19.6466708,11.314 20.6531708,12.623 Z M16.7547708,16.3795 C17.1683708,15.6425 17.1089708,14.9143 16.6139708,14.6602 C16.0925708,14.3929 15.3401708,14.7889 14.9771708,15.4357 C14.5635708,16.1727 14.6262708,16.9812 15.1179708,17.2419 C15.6085708,17.5026 16.3411708,17.1165 16.7547708,16.3795 Z M8.50017082,10.5 C6.29103182,10.5 4.50017082,8.709139 4.50017082,6.5 C4.50017082,4.290861 6.29103182,2.5 8.50017082,2.5 C10.7093098,2.5 12.5001708,4.290861 12.5001708,6.5 C12.5001708,8.709139 10.7093098,10.5 8.50017082,10.5 Z" id="path-1"></path>
    </defs>
    <g id="Symbols" stroke="none" stroke-width="1" fill="none" fill-rule="evenodd">
        <g id="icon/20px/mention">
            <mask id="mask-2" fill="white">
                <use xlink:href="#path-1"></use>
            </mask>
            <use id="Combined-Shape" fill="#3F4F71" xlink:href="#path-1"></use>
        </g>
    </g>
</svg>