<?xml version="1.0" encoding="UTF-8"?>
<svg width="24px" height="24px" viewBox="0 0 24 24" version="1.1" xmlns="http://www.w3.org/2000/svg" xmlns:xlink="http://www.w3.org/1999/xlink">
    <!-- Generator: Sketch 48.1 (47250) - http://www.bohemiancoding.com/sketch -->
    <title>icon/20px/office-building</title>
    <desc>Created with Sketch.</desc>
    <defs>
        <path d="M8,6 L8,8.14418994 C6.38761521,8.14336052 5.0085302,8.14285714 5.0085302,8.14285714 C5.00457681,8.14285714 5,18.8508657 5,18.8508657 C5,18.8522641 6.38395203,18.8535856 8,18.8546522 L8,21 L5.0085302,21 C3.8992496,21 3,20.0388642 3,18.8508657 L3,8.14913428 C3,6.96220019 3.90195036,6 5.0085302,6 L8,6 Z M9,4.99508929 C9,3.8932319 9.90195036,3 11.0085302,3 L18.9914698,3 C20.1007504,3 21,3.8926228 21,4.99508929 L21,19.0049107 C21,20.1067681 20.0980496,21 18.9914698,21 L9,21 L9,4.99508929 Z M18.9914698,19 C18.9978202,19 19,4.99508929 19,4.99508929 C19,5.00051505 11.0085302,5 11.0085302,5 C11.0021798,5 11,19 11,19 L18.9914698,19 Z M12,7 L14,7 L14,9 L12,9 L12,7 Z M6,10 L8,10 L8,12 L6,12 L6,10 Z M6,13 L8,13 L8,15 L6,15 L6,13 Z M12,10 L14,10 L14,12 L12,12 L12,10 Z M12,13 L14,13 L14,15 L12,15 L12,13 Z M14,16 L16,16 L16,19 L14,19 L14,16 Z M16,7 L18,7 L18,9 L16,9 L16,7 Z M16,10 L18,10 L18,12 L16,12 L16,10 Z M16,13 L18,13 L18,15 L16,15 L16,13 Z" id="path-1"></path>
    </defs>
    <g id="Symbols" stroke="none" stroke-width="1" fill="none" fill-rule="evenodd">
        <g id="icon/20px/office-building">
            <mask id="mask-2" fill="white">
                <use xlink:href="#path-1"></use>
            </mask>
            <use id="Combined-Shape" fill="#42526E" fill-rule="nonzero" xlink:href="#path-1"></use>
        </g>
    </g>
</svg>