<?xml version="1.0" encoding="UTF-8"?>
<svg width="24px" height="24px" viewBox="0 0 24 24" version="1.1" xmlns="http://www.w3.org/2000/svg" xmlns:xlink="http://www.w3.org/1999/xlink">
    <!-- Generator: Sketch 48.1 (47250) - http://www.bohemiancoding.com/sketch -->
    <title>icon/20px/progress</title>
    <desc>Created with Sketch.</desc>
    <defs>
        <path d="M12,18 C8.691,18 6,15.309 6,12 C6,8.691 8.691,6 12,6 L12,12 L16.241,16.241 C15.154,17.327 13.654,18 12,18 M12,4 C7.582,4 4,7.582 4,12 C4,16.418 7.582,20 12,20 C16.142,20 19.549,16.852 19.959,12.818 C19.986,12.549 20,12.276 20,12 C20,7.582 16.418,4 12,4" id="path-1"></path>
    </defs>
    <g id="Symbols" stroke="none" stroke-width="1" fill="none" fill-rule="evenodd">
        <g id="icon/20px/progress">
            <mask id="mask-2" fill="white">
                <use xlink:href="#path-1"></use>
            </mask>
            <use id="progress" fill="#3F4F71" xlink:href="#path-1"></use>
        </g>
    </g>
</svg>